<?xml version="1.0" encoding="utf-8"?>
<!-- Generator: Adobe Illustrator 18.1.0, SVG Export Plug-In . SVG Version: 6.00 Build 0)  -->
<svg version="1.1" id="A11_liquified_gas" xmlns="http://www.w3.org/2000/svg" xmlns:xlink="http://www.w3.org/1999/xlink" x="0px" y="0px"
	 viewBox="0 0 175 60" enable-background="new 0 0 175 60" xml:space="preserve">
	<g>
		<path fill="#ffffff" d="M174.9,43.7c-0.2,0-4.2,0-11,0c-0.6-9.9-10-10-10-10H76v-6H55v6H39c0,0-9.4,0-10,10c-17.3,0-29,0-29,0
			s0,0.3,0,4c0,5,11.8,6.8,16,12c8.6,0,138.1,0,143.9,0C165.7,59.7,175.9,47.7,174.9,43.7z M56,33.7v-5h19v5v6H56V33.7z M39,34.7h16
			v5v1h1h19h1v-1v-5h78c0.4,0,8.4,0.2,9,9c-27.1,0-93.8,0-132.9,0C30.6,34.8,38.6,34.7,39,34.7z M170.7,50.8
			c-3.6,4.6-8.1,7.9-10.8,7.9H16.5c-2-2.3-5.2-3.8-8.4-5.4C4.4,51.5,1,49.8,1,47.7c0-1.5,0-2.4,0-3h28h135h10
			C173.8,45.9,172.8,48.1,170.7,50.8z"/>
		<path fill="#ffffff" d="M7.8,41.7h13.5c1,0,1.8-0.8,1.8-1.8V29.4c0-1-0.8-1.8-1.8-1.8H7.8c-1,0-1.8,0.8-1.8,1.8v10.5
			C6,40.9,6.8,41.7,7.8,41.7z M7,29.4c0-0.4,0.3-0.8,0.8-0.8h13.5c0.4,0,0.8,0.3,0.8,0.8v10.5c0,0.4-0.3,0.8-0.8,0.8H7.8
			c-0.4,0-0.8-0.3-0.8-0.8V29.4z"/>
		<path fill="#ffffff" d="M6.4,17.7h15c0.2,0,0.3-0.1,0.4-0.3l1.1-3.2c0.1-0.3-0.1-0.5-0.4-0.5H6.4c-0.2,0-0.4,0.2-0.4,0.4v3.2
			C6,17.5,6.2,17.7,6.4,17.7z M7,14.7h14.6l-0.7,2H7V14.7z"/>
		<path fill="#ffffff" d="M20.6,20.8c0.2-0.6-0.2-1.2-0.8-1.2H6v6h13L20.6,20.8z M7,24.7v-4h12.6l-1.3,4H7z"/>
		<path fill="#ffffff" d="M11.5,11.7c0.3,0,0.5-0.2,0.5-0.5v-11c0-0.3-0.2-0.5-0.5-0.5c-0.3,0-0.5,0.2-0.5,0.5v11
			C11,11.4,11.2,11.7,11.5,11.7z"/>
	</g>
</svg>
