<?xml version="1.0" encoding="utf-8"?>
<!-- Generator: Adobe Illustrator 18.1.0, SVG Export Plug-In . SVG Version: 6.00 Build 0)  -->
<svg version="1.1" id="A13_oil" xmlns="http://www.w3.org/2000/svg" xmlns:xlink="http://www.w3.org/1999/xlink" x="0px" y="0px"
	 viewBox="0 0 175 60" enable-background="new 0 0 175 60" xml:space="preserve">
	<g>
		<path fill="#ffffff" d="M174.9,44C173.7,44,0,44,0,44s0,0.3,0,4c0,5,11.8,6.8,16,12c8.6,0,138.1,0,143.9,0
			C165.7,60,175.9,48,174.9,44z M170.7,51.1c-3.6,4.6-8.1,7.9-10.8,7.9H16.5c-2-2.3-5.2-3.8-8.4-5.4C4.4,51.8,1,50.2,1,48
			c0-1.5,0-2.4,0-3h173C173.8,46.3,172.8,48.4,170.7,51.1z"/>
		<path fill="#ffffff" d="M7.8,42h13.5c1,0,1.8-0.8,1.8-1.8V29.8c0-1-0.8-1.8-1.8-1.8H7.8c-1,0-1.8,0.8-1.8,1.8v10.5
			C6,41.2,6.8,42,7.8,42z M7,29.8C7,29.3,7.3,29,7.8,29h13.5c0.4,0,0.8,0.3,0.8,0.8v10.5c0,0.4-0.3,0.8-0.8,0.8H7.8
			C7.3,41,7,40.7,7,40.2V29.8z"/>
		<path fill="#ffffff" d="M6.4,18h15c0.2,0,0.3-0.1,0.4-0.3l1.1-3.3c0.1-0.2-0.1-0.5-0.4-0.5H6.4C6.2,14,6,14.2,6,14.4v3.3
			C6,17.8,6.2,18,6.4,18z M7,15h14.6l-0.7,2H7V15z"/>
		<path fill="#ffffff" d="M20.6,21.2c0.2-0.6-0.2-1.2-0.8-1.2H6v6h13L20.6,21.2z M7,25v-4h12.6l-1.3,4H7z"/>
		<path fill="#ffffff" d="M11.5,12c0.3,0,0.5-0.2,0.5-0.5v-11C12,0.2,11.8,0,11.5,0C11.2,0,11,0.2,11,0.5v11C11,11.8,11.2,12,11.5,12
			z"/>
		<path fill="#ffffff" d="M80.5,42c1.9,0,3.5-1.6,3.5-3.5S82.4,35,80.5,35S77,36.6,77,38.5S78.6,42,80.5,42z M80.5,36
			c1.4,0,2.5,1.1,2.5,2.5c0,1.4-1.1,2.5-2.5,2.5S78,39.9,78,38.5C78,37.1,79.1,36,80.5,36z"/>
		<path fill="#ffffff" d="M96.5,42c1.9,0,3.5-1.6,3.5-3.5S98.4,35,96.5,35S93,36.6,93,38.5S94.6,42,96.5,42z M96.5,36
			c1.4,0,2.5,1.1,2.5,2.5c0,1.4-1.1,2.5-2.5,2.5S94,39.9,94,38.5C94,37.1,95.1,36,96.5,36z"/>
		<path fill="#ffffff" d="M88.5,42c1.9,0,3.5-1.6,3.5-3.5S90.4,35,88.5,35S85,36.6,85,38.5S86.6,42,88.5,42z M88.5,36
			c1.4,0,2.5,1.1,2.5,2.5c0,1.4-1.1,2.5-2.5,2.5S86,39.9,86,38.5C86,37.1,87.1,36,88.5,36z"/>
	</g>
</svg>
