<?xml version="1.0" encoding="utf-8"?>
<!-- Generator: Adobe Illustrator 18.1.0, SVG Export Plug-In . SVG Version: 6.00 Build 0)  -->
<svg version="1.1" id="A21_A22_A23_A24_A38_B35_W12_bulk_carrier" xmlns="http://www.w3.org/2000/svg" xmlns:xlink="http://www.w3.org/1999/xlink" x="0px" y="0px"
	 viewBox="0 0 175 60" enable-background="new 0 0 175 60" xml:space="preserve">
	<g>
		<path fill="#ffffff" d="M21.8,8.7h-17v4h15.7L21.8,8.7z M19.8,11.7H5.8v-2h14.6L19.8,11.7z"/>
		<path fill="#ffffff" d="M19.8,14.7h-15v5h13L19.8,14.7z M5.8,18.7v-3h12.5l-1.2,3H5.8z"/>
		<path fill="#ffffff" d="M6.3,31.4h11c0.8,0,1.5-0.7,1.5-1.5v-6.6c0-0.8-0.7-1.5-1.5-1.5h-11c-0.8,0-1.5,0.7-1.5,1.5v6.6
			C4.8,30.8,5.5,31.4,6.3,31.4z M5.8,23.4c0-0.3,0.2-0.5,0.5-0.5h11c0.3,0,0.5,0.2,0.5,0.5v6.6c0,0.3-0.2,0.5-0.5,0.5h-11
			c-0.3,0-0.5-0.2-0.5-0.5V23.4z"/>
		<path fill="#ffffff" d="M62.7,35.7h5V23.4h-5V35.7z M63.7,24.4h3v10.2h-3V24.4z"/>
		<path fill="#ffffff" d="M67.7,22.7l1-5h-7l1,5H67.7z M67.5,18.7l-0.6,3h-3.4l-0.6-3H67.5z"/>
		<path fill="#ffffff" d="M69.1,27.8l20.8-4.6l-0.2-1.5l-21,2.3L69.1,27.8z M85.7,23.1L70,26.6l-0.2-1.8L85.7,23.1z"/>
		<path fill="#ffffff" d="M127.9,37.7v-7H105v7h-7.2v-7H74.8v7h-20v-7H31.9v7h-9.1l-4-3.9h-14l-1.8,2H0.8c-0.5,0-0.9,0.4-0.9,0.9v3.6
			v0.4c0,0.8,0,2.8,0,8c0,10.9,8.6,11,10,11c0,0,0,0,0,0c1.2,0,125.4,0,127,0c0.2-10,4.4-10.1,5-17c0-3.9,0-5,0-5H127.9z M106,31.7
			h20.9v6H106V31.7z M75.8,31.7h20.9v6H75.8V31.7z M32.9,31.7h20.9v6H32.9V31.7z M140.8,42.6c-0.3,2.8-1.1,4.3-2.1,6.1
			c-1.2,2.2-2.6,4.8-2.9,10H9.8c-8.1,0-9-7-9-10v-8.4v-3.5H3h0.4l0.3-0.3l1.5-1.7h13.1l3.7,3.6l0.3,0.3h0.4h9.1h22.9h20h22.9h7.2
			h22.9h12.9V42.6z"/>
	</g>
</svg>
