<?xml version="1.0" encoding="utf-8"?>
<!-- Generator: Adobe Illustrator 18.1.0, SVG Export Plug-In . SVG Version: 6.00 Build 0)  -->
<svg version="1.1" id="A36_passenger_cargo_roro" xmlns="http://www.w3.org/2000/svg" xmlns:xlink="http://www.w3.org/1999/xlink" x="0px" y="0px"
	 viewBox="0 0 175 60" enable-background="new 0 0 175 60" xml:space="preserve">
	<g>
		<path fill="#ffffff" d="M174.6,44c-1.2,0-174.9,0-174.9,0s0,0.3,0,4c0,5,11.8,6.8,16,12c8.6,0,138.1,0,143.9,0S175.6,48,174.6,44z
			M170.4,51.1c-3.6,4.6-8.1,7.9-10.8,7.9H16.1c-2-2.3-5.2-3.8-8.4-5.4c-3.7-1.8-7.1-3.5-7.1-5.6c0-1.5,0-2.4,0-3h173
			C173.5,46.3,172.5,48.4,170.4,51.1z"/>
		<path fill="#ffffff" d="M139.5,20.7h18.9c0.1,0,0.1,0,0.1-0.1l1.5-4.6c0-0.1,0-0.2-0.1-0.2h-20.5c-0.1,0-0.1,0.1-0.1,0.1v4.6
			C139.3,20.6,139.4,20.7,139.5,20.7z M140.3,16.8h18.4l-1,2.9h-17.4V16.8z"/>
		<path fill="#ffffff" d="M61.7,42h58.1h18.3h16.7c0.2,0,3.8-0.2,3.8-0.4l-3.4-18c0-0.2-0.2-0.4-0.4-0.4H129c-0.1,0-0.3-0.1-0.3-0.2
			l-4.4-8.8c-0.1-0.1-0.2-0.2-0.3-0.2h-7.4c-0.2,0-0.4,0.2-0.4,0.4l0.8,15.2c0,0.2-0.2,0.4-0.4,0.4H89.5c-0.2,0-0.4,0.2-0.4,0.4v4.4
			c0,0.2-0.2,0.4-0.4,0.4H61.7c-0.2,0-0.4,0.2-0.4,0.4v6C61.3,41.8,61.5,42,61.7,42z M62.3,36.2h26.5c0.8,0,1.4-0.6,1.4-1.4V31h26.5
			c0.4,0,0.7-0.2,1-0.4c0.3-0.3,0.4-0.7,0.4-1L117.2,15h6.3l4.2,8.5c0.2,0.5,0.7,0.8,1.2,0.8h25.4l3.2,16.6c-0.9,0.1-2.3,0.2-2.7,0.2
			h-16.7h-18.3H62.3V36.2z"/>
	</g>
</svg>
