<?xml version="1.0" encoding="utf-8"?>
<!-- Generator: Adobe Illustrator 19.2.1, SVG Export Plug-In . SVG Version: 6.00 Build 0)  -->
<svg version="1.1" id="attachment_alt" xmlns="http://www.w3.org/2000/svg" xmlns:xlink="http://www.w3.org/1999/xlink" x="0px" y="0px"
	 viewBox="0 0 176 176" style="enable-background:new 0 0 176 176;" xml:space="preserve">
	<g>
		<path d="M107.4,93.2H50.7c-2.2,0-4,1.8-4,4s1.8,4,4,4h56.7c2.2,0,4-1.8,4-4S109.6,93.2,107.4,93.2z"/>
		<path d="M107.4,74.4H50.7c-2.2,0-4,1.8-4,4s1.8,4,4,4h56.7c2.2,0,4-1.8,4-4S109.6,74.4,107.4,74.4z"/>
		<path d="M107.4,112H50.7c-2.2,0-4,1.8-4,4s1.8,4,4,4h56.7c2.2,0,4-1.8,4-4S109.6,112,107.4,112z"/>
		<path d="M107.4,130.7H50.7c-2.2,0-4,1.8-4,4s1.8,4,4,4h56.7c2.2,0,4-1.8,4-4S109.6,130.7,107.4,130.7z"/>
		<path d="M126.5,87.5c-2.2,0-4,1.8-4,4v53.8c0,3.7-3,6.7-6.7,6.7H42.3c-3.7,0-6.7-3-6.7-6.7V43.7c0-3.7,3-6.7,6.7-6.7h36.7
			c2.2,0,4-1.8,4-4s-1.8-4-4-4H42.3c-8.1,0-14.7,6.6-14.7,14.7v101.6c0,8.1,6.6,14.7,14.7,14.7h73.4c8.1,0,14.7-6.6,14.7-14.7V91.5
			C130.5,89.3,128.7,87.5,126.5,87.5z"/>
		<path d="M143.3,61.7c-5.6-5.2-11-10.9-16.3-16.4c-4.4-4.6-9-9.4-13.8-14l-0.2-0.2c-1.5-1.3-3.3-2-5.4-2c-1.2,0-2.5,0.3-3.7,0.7
			c-2.5,1.1-4.1,2.8-4.7,5.1L99,35.4l0,0c-0.7,2.7,0,5.1,0.7,6.6c1,2.1,2.4,3.8,3.5,5c0.1,0.1,0.2,0.3,0.4,0.4l-0.1,0.1l0.1-0.1
			c3.7,3.8,7.5,7.6,11.2,11.4c3.1,3.2,6.2,6.3,9.3,9.5c0.5,0.5,1.2,0.8,2,0.9c0.7,0,1.5-0.3,2-0.8c0.5-0.5,0.8-1.3,0.8-2
			c0-0.7-0.3-1.5-0.8-2c-7-7.1-13.9-14.1-20.9-21.2l0,0c-0.2-0.2-0.4-0.4-0.6-0.7c-0.9-0.9-1.9-2-2.3-2.9c-0.5-1-1-3,0.9-4.4
			c0.5-0.3,1-0.5,1.6-0.5c1.3,0,2.5,0.8,2.5,0.8v0c4.6,4.4,9.1,9.1,13.5,13.7c5.3,5.6,10.9,11.3,16.7,16.7c3.3,3.1,4.4,7.5,2.6,10.8
			c-1,1.9-3,3.4-5.3,3.9c-0.6,0.2-1.3,0.2-1.9,0.2c0,0,0,0,0,0c-1.5,0-2.9-0.5-3.9-1.4c-7.3-6.8-14.4-14.2-21.2-21.4
			c-3.7-3.9-7.5-7.8-11.3-11.7l-0.1-0.1c-3-3.3-5.7-6.5-5.7-10V36c-0.1-2.4,0.7-4.8,2.1-6.8c1.5-2.2,5.9-5.5,8.8-5.9
			c0.6-0.1,1.2-0.2,1.8-0.2c2.2,0,4.2,0.7,5.5,2c9,8.7,17.8,17.5,26.7,26.4c0.5,0.5,1.2,0.8,2,0.9c0.7,0,1.5-0.3,2-0.8
			c0.5-0.5,0.8-1.3,0.8-2c0-0.8-0.3-1.5-0.8-2c-9.8-9.8-18-18-26.8-26.5c-2.4-2.4-5.8-3.7-9.7-3.6c-0.8,0-1.5,0.1-2.4,0.2
			c-4.1,0.7-9.9,4.5-12.4,8.2l-0.1,0.1c-2.1,2.9-3.2,6.5-3.1,10.1c0,5.7,3.6,9.7,6.6,13c0.2,0.3,0.5,0.5,0.7,0.8c0,0,0,0.1,0.1,0.2
			c3.8,3.8,7.5,7.7,11.1,11.5c6.9,7.3,14.1,14.8,21.7,21.8c2,1.9,4.7,2.9,7.7,2.9c1.1,0,2.1-0.1,3.2-0.4c3.9-0.9,7.1-3.4,8.9-6.7
			C150,73.7,148.4,66.5,143.3,61.7z"/>
		<path d="M85.4,55.6H50.7c-2.2,0-4,1.8-4,4s1.8,4,4,4h34.7c2.2,0,4-1.8,4-4S87.6,55.6,85.4,55.6z"/>
	</g>
</svg>
