<?xml version="1.0" encoding="utf-8"?>
<!-- Generator: Adobe Illustrator 18.1.0, SVG Export Plug-In . SVG Version: 6.00 Build 0)  -->
<svg version="1.1" id="card_view" xmlns="http://www.w3.org/2000/svg" xmlns:xlink="http://www.w3.org/1999/xlink" x="0px" y="0px"
	 viewBox="0 0 251 148.4" enable-background="new 0 0 251 148.4" xml:space="preserve">
	<g>
		<g>
			<path fill="#000000" stroke="#000000" stroke-width="4" stroke-miterlimit="10" d="M181.4,122.1H67.8c-6.8,0-12.4-5.6-12.4-12.4
				V36.4c0-6.8,5.6-12.4,12.4-12.4h113.7c6.8,0,12.4,5.6,12.4,12.4v73.3C193.8,116.5,188.2,122.1,181.4,122.1z M67.8,30
				c-3.5,0-6.5,2.7-6.5,6.2v73.3c0,3.5,3,6.5,6.5,6.5h113.7c3.5,0,6.5-3,6.5-6.5v-73c0-3.5-3-6.5-6.5-6.5L67.8,30L67.8,30z"/>
		</g>
		<g>
			<path fill="#000000" stroke="#000000" stroke-width="3" stroke-miterlimit="10" d="M110.2,98.9H75.7c-1.8,0-3-1.2-3-3V50
				c0-1.8,1.2-3,3-3h34.5c1.8,0,2.9,1.2,2.9,3v46.2C113.1,97.7,111.9,98.9,110.2,98.9z M78.7,93h28.6v-40H78.7V93z"/>
		</g>
		<g>
		</g>
	</g>
	<path fill="#000000" d="M175.2,51h-48.7c-3.1,0-5.7,2.5-5.7,5.7c0,3.1,2.5,5.7,5.7,5.7h48.7c3.1,0,5.7-2.5,5.7-5.7
		C180.9,53.5,178.4,51,175.2,51z"/>
	<path fill="#000000" d="M175.2,67.9h-48.7c-3.1,0-5.7,2.5-5.7,5.7s2.5,5.7,5.7,5.7h48.7c3.1,0,5.7-2.5,5.7-5.7
		S178.4,67.9,175.2,67.9z"/>
	<path fill="#000000" d="M175.2,84.5h-48.7c-3.1,0-5.7,2.5-5.7,5.7s2.5,5.7,5.7,5.7h48.7c3.1,0,5.7-2.5,5.7-5.7
		S178.3,84.5,175.2,84.5z"/>
</svg>
