<?xml version="1.0" encoding="utf-8"?>
<!-- Generator: Adobe Illustrator 19.2.1, SVG Export Plug-In . SVG Version: 6.00 Build 0)  -->
<svg version="1.1" id="Layer_1" xmlns="http://www.w3.org/2000/svg" xmlns:xlink="http://www.w3.org/1999/xlink" x="0px" y="0px"
	 viewBox="0 0 176 176" style="enable-background:new 0 0 176 176;" xml:space="preserve">
	<path d="M150,87.2h-14v-14c0-5.5-4.5-10-10-10h-14v-14c0-5.5-4.5-10-10-10H88v-14c0-5.5-4.5-10-10-10H26c-5.5,0-10,4.5-10,10v52
		c0,5.5,4.5,10,10,10h14v14c0,5.5,4.5,10,10,10h14v14c0,5.5,4.5,10,10,10h14v14c0,5.5,4.5,10,10,10h52c5.5,0,10-4.5,10-10v-52
		C160,91.8,155.5,87.2,150,87.2z M26,78.3c-0.5,0-1-0.5-1-1v-52c0-0.5,0.5-1,1-1h52c0.5,0,1,0.5,1,1v52c0,0.5-0.5,1-1,1H26z
		M74,126.3c-0.5,0-1-0.5-1-1v-14h29c5.5,0,10-4.5,10-10v-29h14c0.5,0,1,0.5,1,1v52c0,0.5-0.5,1-1,1H74z M151,149.2c0,0.5-0.5,1-1,1
		H98c-0.5,0-1-0.5-1-1v-14h29c5.5,0,10-4.5,10-10v-29h14c0.5,0,1,0.5,1,1V149.2z"/>
</svg>
