<?xml version="1.0" encoding="iso-8859-1"?>
<!-- Generator: Adobe Illustrator 18.1.0, SVG Export Plug-In . SVG Version: 6.00 Build 0)  -->
<svg version="1.1" xmlns="http://www.w3.org/2000/svg" xmlns:xlink="http://www.w3.org/1999/xlink" x="0px" y="0px"
	 viewBox="0 0 176 176" style="enable-background:new 0 0 176 176;" xml:space="preserve">
	<g id="Left">
		<g>
			<path d="M59.465,88.024l56.324-55.796c2.652-2.626,2.652-6.887,0-9.513
				c-1.327-1.314-3.064-1.971-4.803-1.971c-1.739,0-3.476,0.657-4.803,1.971L45.058,83.266c-2.653,2.627-2.653,6.887,0,9.515
				l61.124,60.553c2.654,2.627,6.953,2.627,9.606,0c2.652-2.628,2.652-6.887,0-9.516L59.465,88.024z"/>
		</g>
	</g>
</svg>
