<?xml version="1.0" encoding="utf-8"?>
<!-- Generator: Adobe Illustrator 19.2.1, SVG Export Plug-In . SVG Version: 6.00 Build 0)  -->
<svg version="1.1" id="overdue" xmlns="http://www.w3.org/2000/svg" xmlns:xlink="http://www.w3.org/1999/xlink" x="0px" y="0px"
	 viewBox="0 0 176 176" style="enable-background:new 0 0 176 176;" xml:space="preserve">
	<style type="text/css">
		.st7{fill:#28348A;}
	</style>
	<g>
		<path class="st7" d="M159.6,141.8L92.8,26c-1-1.7-2.8-2.8-4.8-2.8c0,0,0,0,0,0c-2,0-3.8,1-4.8,2.7L16.3,141.7c-1,1.7-1,3.8,0,5.5
			s2.8,2.8,4.8,2.8h133.7c2,0,3.8-1,4.8-2.7S160.5,143.5,159.6,141.8z M30.6,139L88,39.7l57.3,99.3H30.6z"/>
		<path class="st7" d="M83.7,69.5v31.3c0,1.9,1.9,3.4,4.3,3.4s4.3-1.5,4.3-3.4V69.6c0-1.9-1.9-3.5-4.3-3.5S83.7,67.6,83.7,69.5z"/>
		<path class="st7" d="M88,116.3c-2.4,0-4.3,1.5-4.3,3.4v6.8c0,1.9,1.9,3.4,4.3,3.4s4.3-1.5,4.3-3.4v-6.8
			C92.3,117.8,90.4,116.3,88,116.3z"/>
	</g>
</svg>
