<?xml version="1.0" encoding="utf-8"?>
<!-- Generator: Adobe Illustrator 19.2.1, SVG Export Plug-In . SVG Version: 6.00 Build 0)  -->
<svg version="1.1" id="star" xmlns="http://www.w3.org/2000/svg" xmlns:xlink="http://www.w3.org/1999/xlink" x="0px" y="0px"
	 viewBox="0 0 176 176" style="enable-background:new 0 0 176 176;" xml:space="preserve">
	<g id="Layer_33">
		<g>
			<path
				fill="none"
				stroke="#000000"
				stroke-width="10"
				d="M127.5,147.9c-0.9,0-1.8-0.2-2.6-0.6L88.4,128l-36.6,19.2c-1.9,1-4.1,0.8-5.8-0.4s-2.5-3.3-2.2-5.4l7-40.7L21.2,71.9
				c-1.5-1.5-2-3.6-1.4-5.6s2.4-3.4,4.4-3.7l40.9-5.9l18.3-37.1c0.9-1.9,2.8-3.1,4.9-3.1l0,0c2.1,0,4,1.2,4.9,3.1l18.3,37.1l40.9,5.9
				c2.1,0.3,3.8,1.8,4.4,3.7c0.6,2,0.1,4.2-1.4,5.6l-29.6,28.9l7,40.7c0.4,2.1-0.5,4.1-2.2,5.4C129.8,147.6,128.7,147.9,127.5,147.9z"/>
		</g>
	</g>
</svg>
