<?xml version="1.0" encoding="iso-8859-1"?>
<!-- Generator: Adobe Illustrator 18.1.0, SVG Export Plug-In . SVG Version: 6.00 Build 0)  -->
<svg version="1.1" xmlns="http://www.w3.org/2000/svg" xmlns:xlink="http://www.w3.org/1999/xlink" x="0px" y="0px"
	 viewBox="0 0 176 176" style="enable-background:new 0 0 176 176;" xml:space="preserve">
	<g id="View">
		<g>
			<g>
				<path d="M87.741,61.604c-13.433,0-24.362,11.041-24.362,24.612c0,13.576,10.929,24.617,24.362,24.617
					c13.436,0,24.366-11.043,24.366-24.617C112.107,72.644,101.177,61.604,87.741,61.604z M87.741,102.225
					c-8.689,0-15.753-7.179-15.753-16.009c0-8.819,7.064-16.005,15.753-16.005c8.688,0,15.758,7.185,15.758,16.005
					C103.499,95.046,96.429,102.225,87.741,102.225z M159.937,83.422c-0.359-1.841-1.133-3.523-2.241-4.877l-0.095-0.119
					c-3.927-5.359-8.766-10.627-15.215-16.562c-13.462-12.397-26.993-20.334-40.213-23.58c-4.611-1.13-9.319-1.702-14.002-1.702
					c-4.056,0-8.201,0.431-12.328,1.285c-7.27,1.494-14.71,4.521-22.731,9.25c-10.436,6.173-20.498,14.781-29.922,25.597
					c-1.837,2.1-3.367,3.92-4.82,5.927c-3.126,4.273-3.129,9.845,0.021,14.158c3.976,5.451,8.856,10.775,15.357,16.746
					c13.453,12.391,26.984,20.326,40.21,23.574c4.59,1.13,9.314,1.704,14.037,1.704c4.071,0,8.207-0.426,12.293-1.269
					c7.301-1.516,14.734-4.546,22.735-9.258c10.423-6.169,20.485-14.776,29.923-25.6c1.626-1.873,3.191-3.705,4.657-5.708
					l0.083-0.103c0.782-0.951,1.394-2.052,1.818-3.279l0.46-1.331l0.102-1.423l0.04-0.562l0.106-1.448L159.937,83.422z
					M151.49,86.067c-0.03,0.087-0.07,0.162-0.122,0.222l-0.268,0.333c-1.338,1.845-2.863,3.617-4.287,5.263
					c-8.811,10.1-18.156,18.109-27.771,23.799c-7.227,4.255-13.861,6.973-20.3,8.312c-3.59,0.74-7.179,1.112-10.743,1.112
					c-4.112,0-8.191-0.494-12.206-1.483c-11.891-2.92-24.207-10.193-36.607-21.613c-6.057-5.567-10.546-10.453-14.149-15.39
					c-0.519-0.712-0.519-1.123,0.005-1.84c1.235-1.707,2.61-3.339,4.292-5.263c8.784-10.085,18.126-18.092,27.765-23.792
					c7.236-4.266,13.869-6.984,20.298-8.307c3.605-0.746,7.227-1.127,10.775-1.127c4.072,0,8.174,0.5,12.171,1.482
					c11.887,2.919,24.204,10.198,36.604,21.616c6.07,5.584,10.565,10.476,14.146,15.399l0.276,0.34
					c0.074,0.085,0.131,0.221,0.162,0.376L151.49,86.067z"/>
			</g>
		</g>
	</g>
</svg>
