[
    {
    "id": 48,
    "title": "flag test",
    "note": null,
    "attachmentUrl": "42565363",
    "assetLocationViewpoint": null,
    "attachmentType": {
      "id": 2,
      "_id": "2"
    },
    "attachmentCategory": null,
    "confidentialityType": null,
    "location": null,
    "author": {
      "id": 3,
      "deleted": false,
      "oneWorldNumber": "907013",
      "firstName": "Allan",
      "lastName": "Hyde",
      "name": null,
      "emailAddress": "Allan.Hyde@LR.ORG",
      "_id": "3"
    },
    "documentVersion": null,
    "creationDate": "2017-03-27T00:00:00Z",
    "attachmentDate": null,
    "updatedBy": "Allan Hyde",
    "updatedDate": "2017-03-27T00:00:00Z",
    "updatedDateWithTime": "2009-08-16T02:02:00Z",
    "creationDateWithTime": "2009-08-16T02:02:00Z",
    "attachmentDateWithTime": "2009-08-15T00:00:00Z",
    "entityLink": {
      "link": {
        "id": 1,
        "_id": "1"
      },
      "type": "WIP_RECTIFICATION"
    },
    "attachmentTypeH": {
      "id": 2,
      "deleted": false,
      "name": "Picture",
      "description": null,
      "fileExtension": "TIFF",
      "_id": "2"
    },
    "attachmentCategoryH": null,
    "token": "eyJ0eXBlIjoiQ1MxMCIsImNzMTBUb2tlbiI6eyJub2RlSWQiOjQyNTY1MzYzfX0=",
    "_id": "48"
  }
]