{
  "id": 1,
  "codicilType": "COC",
  "repairH": [{
    "name": "Conditions of Class 1",
    "repairsH": [{
      "name": "Item 1"
    },{
      "itemName": "Item 2"
    }]
  }],
  "dueStatusH": {
    "name": "Not Due"
  },
  "statusH": {
    "name": "Cancelled"
  },
  "defectH": {
    "id": 1
  },
  "categoryH": {
    "name": "Hull"
  },
  "job": {
    "id": 1
  },
  "assetItemH": {
    "id": 1,
    "name": "Item name 1"
  },
  "defect": {
    "id": 1
  },
  "history": [{
    "jobId": 1,
    "action": "Raised",
    "dueDate": "2017-12-12",
    "jobNumber": "4454",
    "logEntry": 123
  },
  {
    "jobId": 2,
    "action": "Raised",
    "dueDate": "2017-12-12",
    "jobNumber": "9961",
    "logEntry": 345
  }],
  "imposedDate": "2014-12-18T00:00:00Z",
  "dueDate": "2015-08-01T00:00:00Z",
  "description": "Lorem ipsum dolor sit amet, consectetur adipiscing elit. Maecenas mollis odio quis elit commodo, vel dapibus nisl hendrerit. Nullam consectetur eu massa interdum ultricies. Curabitur eu velit eget quam maximus egestas luctus sit amet metus."
}
