[{
  "id": 1,
  "name": "GBOCompanyName1",
  "imoNumber": 6000001,
  "cdhCustomerId": null,
  "jdeReferenceNumber": null,
  "phoneNumber": null,
  "faxNumber": null,
  "office": null,
  "contacts": [],
  "addresses": [],
  "clientType": "Client",
  "_id": "1"
}, {
  "id": 2,
  "name": "TechnicalMagCompanyName1",
  "imoNumber": 3000109,
  "cdhCustomerId": null,
  "jdeReferenceNumber": null,
  "phoneNumber": null,
  "faxNumber": null,
  "office": null,
  "contacts": [],
  "addresses": [],
  "clientType": "Ship",
  "_id": "2"
}]
